test | Inbok Rhee
…
## The following objects are masked from 'package:base':
## 
##     intersect, setdiff, setequal, union

library(ggplot2)
library(streamgraph)

df_parties <- read_excel("~/Dropbox/_doc/_archive/other/_KH/1_data/1_key_data/all_elec_from_database.xlsx")
df_parties <- df_parties %>% filter(Position==1)
df_parties_tally <- df_parties %>% group_by(ElecYear, PartyCode) %>% tally
df_parties_tally <- df_parties_tally %>% filter(ElecYear %in% c(1992, 1997, 2002, 2007, 2013))
df_parties_tally

## Source: local data frame [69 x 3]
## Groups: ElecYear [5]
## 
##    ElecYear PartyCode     n
##       <dbl>     <chr> <int>
## 1      1992        DP    51
## 2      1992    FORD-A    68
## 3      1992    FORD-K    61
## 4      1992      KANU   193
## 5      1992       KNC     1
## 6      1992       KSC     1
## 7      1992      PICK     1
## 8      1997        DP    99
## 9      1997    FORD-A     2
## 10     1997    FORD-K    32
## # ... with 59 more rows
…
